  ____                                           _    ____ ___ ____       _                           
 |  _ \ __ _ ___ ___  ___ _ __   __ _  ___ _ __ / \  |  _ \_ _/ ___| __ _| |_ _____      ____ _ _   _ 
 | |_) / _` / __/ __|/ _ \ '_ \ / _` |/ _ \ '__/ _ \ | |_) | | |  _ / _` | __/ _ \ \ /\ / / _` | | | |
 |  __/ (_| \__ \__ \  __/ | | | (_| |  __/ | / ___ \|  __/| | |_| | (_| | ||  __/\ V  V / (_| | |_| |
 |_|   \__,_|___/___/\___|_| |_|\__, |\___|_|/_/   \_\_|  |___\____|\__,_|\__\___| \_/\_/ \__,_|\__, |
                                |___/                                                           |___/ 

${application.title} ${application.version}
Powered by Spring Boot ${spring-boot.version}
